…
<br><br>

- Max number of cases by county

```r
max_county_cases <- counties %>% group_by(county) %>% summarize(max(cases)) %>% arrange(desc(`max(cases)`))

# A tibble: 1,930 x 2
   county         `max(cases)`
   <chr>                 <dbl>
 1 Los Angeles         1248285
 2 New York City        953928
 3 Maricopa             556844
 4 Cook                 556201
 5 Miami-Dade           501925
 6 Harris               403496
 7 Dallas               305400
 8 Riverside            301603
 9 San Bernardino       299289
10 San Diego            281745
# … with 1,920 more rows
```

<br><br>

- Max number of deaths by county

```r
max_county_deaths <- counties %>% group_by(county) %>% summarize(max(deaths)) %>% arrange(desc(`max(deaths)`))

# A tibble: 1,930 x 2
   county         `max(deaths)`
   <chr>                  <dbl>
 1 New York City          33374
 2 Los Angeles            24454
 3 Cook                   11016
 4 Maricopa               10224
 5 Harris                  6548
 6 Miami-Dade              6472
 7 Wayne                   5142
 8 Orange                  5112
 9 San Bernardino          4844
10 Riverside               4627
# … with 1,920 more rows
```

<br><br>

- Prison data: Proportion of cases and deaths to prison population size (2020) by state


```r
prisonstate

# A tibble: 54 x 8
   system   inmate_tests total_inmate_cas… total_inmate_dea… latest_inmate_popu…
   <chr>           <dbl>             <dbl>             <dbl>               <dbl>
 1 Alabama         15505              1601                64               19144
 2 Alaska          27756              2428                 5                5011
 3 Arizona         43652             12229                44               38248
 4 Arkansas            0             11378                52               14729
 5 Califor…       121207             49511               217              110471
 6 Colorado       193165              9389                33               13346
 7 Connect…        73559              4655                19                8839
 8 Delaware        12665              2020                13                4562
 9 Florida         87677             18491               220               83622
10 Georgia         11947              3717                94               47585
# … with 44 more rows, and 3 more variables: max_inmate_population_2020 <dbl>,
#   total_officer_cases <dbl>, total_officer_deaths <dbl>
```
…
